<svg width="17" height="17" viewBox="0 0 17 17" fill="none" xmlns="http://www.w3.org/2000/svg">
<g clip-path="url(#clip0_1548_34)">
<path d="M10.323 7.37104L16.2793 0.599609H14.8678L9.69594 6.47915L5.56515 0.599609H0.800781L7.04734 9.49051L0.800781 16.5914H2.21233L7.674 10.3824L12.0364 16.5914H16.8008L10.3226 7.37104H10.323ZM8.38965 9.56884L7.75674 8.68351L2.72093 1.63882H4.88898L8.95294 7.32411L9.58585 8.20944L14.8685 15.5994H12.7005L8.38965 9.56918V9.56884Z" fill="black"/>
</g>
<defs>
<clipPath id="clip0_1548_34">
<rect width="16" height="16" fill="white" transform="translate(0.800781 0.599609)"/>
</clipPath>
</defs>
</svg>
